Aula04/Aula04_pt1/Aula4pt1/aulaquatroparteum/simulation/qsim/aulaquatroparteum.msim.vcd
$comment
	File created using the following command:
		vcd file aulaquatroparteum.msim.vcd -direction
$end
$date
	Tue Sep 10 16:17:09 2024
$end
$version
	ModelSim Version 10.5b
$end
$timescale
	1ps
$end

$scope module t_flip_flop_vhd_vec_tst $end
$var wire 1 ! clear $end
$var wire 1 " Clk $end
$var wire 1 # Q $end
$var wire 1 $ T $end

$scope module i1 $end
$var wire 1 % gnd $end
$var wire 1 & vcc $end
$var wire 1 ' unknown $end
$var wire 1 ( devoe $end
$var wire 1 ) devclrn $end
$var wire 1 * devpor $end
$var wire 1 + ww_devoe $end
$var wire 1 , ww_devclrn $end
$var wire 1 - ww_devpor $end
$var wire 1 . ww_Clk $end
$var wire 1 / ww_T $end
$var wire 1 0 ww_clear $end
$var wire 1 1 ww_Q $end
$var wire 1 2 \Q~output_o\ $end
$var wire 1 3 \Clk~input_o\ $end
$var wire 1 4 \clear~input_o\ $end
$var wire 1 5 \T~input_o\ $end
$var wire 1 6 \OUTPUT~0_combout\ $end
$var wire 1 7 \OUTPUT~q\ $end
$var wire 1 8 \ALT_INV_Clk~input_o\ $end
$upscope $end
$upscope $end
$enddefinitions $end
#0
$dumpvars
0!
0"
0#
1$
0%
1&
x'
1(
1)
1*
1+
1,
1-
0.
1/
00
01
02
03
04
15
16
07
18
$end
#50000
1"
1.
13
08
#100000
0"
0.
03
18
17
06
12
11
1#
#150000
1"
1.
13
08
#200000
0"
0.
03
18
07
16
02
01
0#
#250000
1"
1.
13
08
#300000
0"
0.
03
18
17
06
12
11
1#
#350000
1"
1.
13
08
#400000
0"
0.
03
18
07
16
02
01
0#
#450000
1"
1.
13
08
#500000
0"
0.
03
18
17
06
12
11
1#
#550000
1"
1.
13
08
#600000
0"
0.
03
18
07
16
02
01
0#
#650000
1"
1.
13
08
#700000
0"
0.
03
18
17
06
12
11
1#
#750000
1"
1.
13
08
#800000
0"
0.
03
18
07
16
02
01
0#
#850000
1"
1.
13
08
#900000
0"
0.
03
18
17
06
12
11
1#
#950000
1"
1.
13
08
